\relax 
\select@language{english}
\@writefile{toc}{\select@language{english}}
\@writefile{lof}{\select@language{english}}
\@writefile{lot}{\select@language{english}}
\@writefile{toc}{\contentsline {section}{\numberline {1}Introduction}{}}
\@writefile{lof}{\contentsline {figure}{\numberline {1}{\ignorespaces \textbf  {\leavevmode {\color  {TealBlue}nu+ }}manycore overview.}}{}}
\newlabel{fig:manycore}{{1}{}}
\@writefile{toc}{\contentsline {section}{\numberline {2}Installation}{}}
\@writefile{toc}{\contentsline {section}{\numberline {3}Project Overview}{}}
\@writefile{toc}{\contentsline {section}{\numberline {4}Toolchain and Simulation}{}}
\@writefile{toc}{\contentsline {section}{\numberline {5}GPU-like core}{}}
\@writefile{toc}{\contentsline {paragraph}{Instruction Fetch}{}}
\@writefile{lof}{\contentsline {figure}{\numberline {2}{\ignorespaces \textbf  {\leavevmode {\color  {TealBlue}nu+ }}core overview.}}{}}
\newlabel{fig:core}{{2}{}}
\@writefile{toc}{\contentsline {paragraph}{Decode}{}}
\@writefile{toc}{\contentsline {paragraph}{Thread Scheduler}{}}
\@writefile{toc}{\contentsline {paragraph}{Operand Fetch}{}}
\@writefile{toc}{\contentsline {paragraph}{Execution}{}}
\@writefile{toc}{\contentsline {paragraph}{ScratchPad Memory}{}}
\@writefile{toc}{\contentsline {paragraph}{Load/Store Unit}{}}
\@writefile{toc}{\contentsline {paragraph}{Writeback}{}}
\@writefile{toc}{\contentsline {paragraph}{Thread Controller}{}}
\@writefile{toc}{\contentsline {paragraph}{Rollback Handler}{}}
\@writefile{toc}{\contentsline {section}{\numberline {6}Memory System}{}}
\newlabel{sec:mem}{{6}{}}
\@writefile{lof}{\contentsline {figure}{\numberline {3}{\ignorespaces Cache Controller Architecture.}}{}}
\newlabel{fig:cc}{{3}{}}
\@writefile{toc}{\contentsline {subsection}{\numberline {6.1}Cache Controller}{}}
\@writefile{toc}{\contentsline {paragraph}{Assumptions:}{}}
\@writefile{toc}{\contentsline {paragraph}{Replacement and Evict}{}}
\@writefile{toc}{\contentsline {subsection}{\numberline {6.2}Directory Controller}{}}
\@writefile{toc}{\contentsline {section}{\numberline {7}Instruction Set Architecture}{}}
\newlabel{section:ISA}{{7}{}}
\newlabel{tab:mean}{{7}{}}
\@writefile{lof}{\contentsline {figure}{\numberline {4}{\ignorespaces \textbf  {\leavevmode {\color  {TealBlue}nu+ }}ISA}}{}}
\newlabel{figura:nuplusisa}{{4}{}}
