\relax 
\citation{*}
\select@language{english}
\@writefile{toc}{\select@language{english}}
\@writefile{lof}{\select@language{english}}
\@writefile{lot}{\select@language{english}}
\@writefile{toc}{\contentsline {section}{\numberline {1}Cache Controller}{1}}
\@writefile{toc}{\contentsline {paragraph}{Assunzioni:}{1}}
\@writefile{toc}{\contentsline {subsection}{\numberline {1.1}Stage 1 - Fetch Unit}{1}}
\@writefile{lof}{\contentsline {figure}{\numberline {1}{\ignorespaces Cache Controller Architecture.}}{2}}
\newlabel{fig:cc}{{1}{2}}
\@writefile{toc}{\contentsline {subsection}{\numberline {1.2}Stage 2 - State Lookup}{3}}
\@writefile{toc}{\contentsline {subsection}{\numberline {1.3}Stage 3 - Protocol}{3}}
\@writefile{toc}{\contentsline {paragraph}{Open Issues:}{3}}
\@writefile{toc}{\contentsline {subsection}{\numberline {1.4}Replacement ed Evict}{3}}
\@writefile{toc}{\contentsline {subsection}{\numberline {1.5}Request from Core}{3}}
\@writefile{toc}{\contentsline {subsection}{\numberline {1.6}MSHR}{4}}
\@writefile{lot}{\contentsline {table}{\numberline {1}{\ignorespaces Tabella MSHR}}{4}}
\newlabel{tab:mshr}{{1}{4}}
\@writefile{toc}{\contentsline {subsection}{\numberline {1.7}Response from Network}{4}}
\@writefile{toc}{\contentsline {section}{\numberline {2}Router}{4}}
\@writefile{toc}{\contentsline {paragraph}{Riepilogo Caratteristiche:}{4}}
\@writefile{lof}{\contentsline {figure}{\numberline {2}{\ignorespaces Network Interface Architecture.}}{5}}
\newlabel{fig:ni}{{2}{5}}
\@writefile{toc}{\contentsline {paragraph}{Assunzioni:}{5}}
\@writefile{toc}{\contentsline {paragraph}{Domande:}{5}}
\@writefile{toc}{\contentsline {subsection}{\numberline {2.1}Router Architecture}{5}}
\@writefile{toc}{\contentsline {section}{\numberline {3}Network Interface}{5}}
\@writefile{lof}{\contentsline {figure}{\numberline {3}{\ignorespaces Interfaccia con il Router.}}{6}}
\newlabel{fig:ni_router}{{3}{6}}
\@writefile{lof}{\contentsline {figure}{\numberline {4}{\ignorespaces Messaggi Cache Controller.}}{6}}
\newlabel{fig:CC_Mex}{{4}{6}}
\@writefile{toc}{\contentsline {subsection}{\numberline {3.1}Network Interface Architecture}{6}}
\@writefile{toc}{\contentsline {subsection}{\numberline {3.2}Interfaccia verso Router}{6}}
\@writefile{toc}{\contentsline {subsection}{\numberline {3.3}Interfaccia e messaggi verso Cache Controller}{7}}
