\relax 
\citation{*}
\@writefile{lof}{\contentsline {figure}{\numberline {1}{\ignorespaces High level coherence protocol}}{2}}
\newlabel{fig:high_level_protocol}{{1}{2}}
\@writefile{toc}{\contentsline {section}{\numberline {1}Load Store stage}{2}}
\@writefile{toc}{\contentsline {section}{\numberline {2}Cache Controller}{3}}
\@writefile{toc}{\contentsline {subsection}{\numberline {2.1}Stadio 1}{3}}
\@writefile{lof}{\contentsline {figure}{\numberline {2}{\ignorespaces Load Store unit (in alto) e Cache controller (in basso). }}{4}}
\newlabel{fig:cc}{{2}{4}}
\@writefile{toc}{\contentsline {subsection}{\numberline {2.2}Stadio 2}{5}}
\@writefile{lot}{\contentsline {table}{\numberline {1}{\ignorespaces Tabella MSHR}}{6}}
\newlabel{tab:mshr}{{1}{6}}
\@writefile{toc}{\contentsline {subsection}{\numberline {2.3}Stadio 3}{7}}
\@writefile{lof}{\contentsline {figure}{\numberline {3}{\ignorespaces Descrizione dettagliata del protocollo. }}{11}}
\newlabel{fig:cc_protocol}{{3}{11}}
\@writefile{toc}{\contentsline {subsection}{\numberline {2.4}Stadio 4}{11}}
\@writefile{toc}{\contentsline {section}{\numberline {3}Directory Controller}{11}}
\@writefile{lof}{\contentsline {figure}{\numberline {4}{\ignorespaces Directory Controller Architecture.}}{12}}
\newlabel{fig:dc}{{4}{12}}
\@writefile{toc}{\contentsline {subsection}{\numberline {3.1}Stage1}{12}}
\@writefile{toc}{\contentsline {subsection}{\numberline {3.2}Stage 2}{13}}
\@writefile{toc}{\contentsline {subsection}{\numberline {3.3}Stage 3}{14}}
\@writefile{lof}{\contentsline {figure}{\numberline {5}{\ignorespaces Descrizione dettagliata del protocollo}}{15}}
\newlabel{fig:msidc}{{5}{15}}
\@writefile{toc}{\contentsline {section}{\numberline {4}Memory Controller}{16}}
\@writefile{toc}{\contentsline {section}{\numberline {5}Casi d'uso}{17}}
\@writefile{toc}{\contentsline {subsection}{\numberline {5.1}Replacement and Evict - Second strategy}{17}}
