\relax 
\citation{*}
\select@language{english}
\@writefile{toc}{\select@language{english}}
\@writefile{lof}{\select@language{english}}
\@writefile{lot}{\select@language{english}}
\@writefile{toc}{\contentsline {section}{\numberline {1}Architecture Overview}{1}}
\@writefile{toc}{\contentsline {paragraph}{Assumptions:}{1}}
\@writefile{toc}{\contentsline {paragraph}{Architecture:}{1}}
\@writefile{toc}{\contentsline {section}{\numberline {2}Cache Controller}{1}}
\@writefile{lof}{\contentsline {figure}{\numberline {1}{\ignorespaces Cache Controller Architecture.}}{2}}
\newlabel{fig:cc}{{1}{2}}
\@writefile{toc}{\contentsline {paragraph}{Assumptions:}{3}}
\@writefile{toc}{\contentsline {subsection}{\numberline {2.1}Replacement and Evict - First strategy}{3}}
\@writefile{toc}{\contentsline {paragraph}{Open Issues:}{3}}
\@writefile{toc}{\contentsline {subsection}{\numberline {2.2}Replacement and Evict - Second strategy}{4}}
\@writefile{lot}{\contentsline {table}{\numberline {1}{\ignorespaces Tabella MSHR}}{4}}
\newlabel{tab:mshr}{{1}{4}}
\@writefile{toc}{\contentsline {paragraph}{MSHR}{4}}
\@writefile{toc}{\contentsline {section}{\numberline {3}Router}{4}}
\@writefile{toc}{\contentsline {paragraph}{Main Features:}{4}}
\@writefile{toc}{\contentsline {paragraph}{Assumption:}{4}}
\@writefile{toc}{\contentsline {paragraph}{Question:}{4}}
\@writefile{toc}{\contentsline {section}{\numberline {4}Network Interface}{4}}
\@writefile{toc}{\contentsline {paragraph}{Assumptions:}{4}}
\@writefile{lof}{\contentsline {figure}{\numberline {2}{\ignorespaces Network Interface Architecture.}}{5}}
\newlabel{fig:ni}{{2}{5}}
\@writefile{toc}{\contentsline {subsection}{\numberline {4.1}NI-Router Interface}{5}}
\@writefile{lof}{\contentsline {figure}{\numberline {3}{\ignorespaces NI-Router Interface.}}{5}}
\newlabel{fig:ni_router}{{3}{5}}
\@writefile{toc}{\contentsline {subsection}{\numberline {4.2}Virtual Network Messages}{5}}
\@writefile{lof}{\contentsline {figure}{\numberline {4}{\ignorespaces Virtual Network Messages.}}{6}}
\newlabel{fig:CC_Mex}{{4}{6}}
